[
  {
    "NAME": "Dozen(s)",
    "SYNONYMS": null,
    "DESCRIPTION": "Dozen(s) of items",
    "CONVERSION_FACTOR": 12,
    "UNIT_GROUP": "Units of items",
    "PROPERTY": "Number of items",
    "REF": false
  },
  {
    "NAME": "Item(s)",
    "SYNONYMS": "unit;LU;pig place;p",
    "DESCRIPTION": "Number of items",
    "CONVERSION_FACTOR": 1,
    "UNIT_GROUP": "Units of items",
    "PROPERTY": "Number of items",
    "REF": true
  },
  {
    "NAME": "cm*m2/d",
    "SYNONYMS": null,
    "DESCRIPTION": "Centimetre times square metre per day",
    "CONVERSION_FACTOR": 1,
    "UNIT_GROUP": "Units of length*area/time",
    "PROPERTY": "Mechanical Filtration (Transf.)",
    "REF": true
  },
  {
    "NAME": "Items*km",
    "SYNONYMS": null,
    "DESCRIPTION": "Items times kilometre",
    "CONVERSION_FACTOR": 1,
    "UNIT_GROUP": "Units of items*length",
    "PROPERTY": "Items*Length",
    "REF": true
  },
  {
    "NAME": "Items*nmi",
    "SYNONYMS": null,
    "DESCRIPTION": "Items times nautical mile",
    "CONVERSION_FACTOR": 1.85,
    "UNIT_GROUP": "Units of items*length",
    "PROPERTY": "Items*Length",
    "REF": false
  },
  {
    "NAME": "Items*mi",
    "SYNONYMS": null,
    "DESCRIPTION": "Items times international mile",
    "CONVERSION_FACTOR": 1.6,
    "UNIT_GROUP": "Units of items*length",
    "PROPERTY": "Items*Length",
    "REF": false
  },
  {
    "NAME": "l*a",
    "SYNONYMS": null,
    "DESCRIPTION": "Litre times year",
    "CONVERSION_FACTOR": 0.001,
    "UNIT_GROUP": "Units of volume*time",
    "PROPERTY": "Volume*time",
    "REF": false
  },
  {
    "NAME": "l*d",
    "SYNONYMS": "l*day",
    "DESCRIPTION": "Litre times day",
    "CONVERSION_FACTOR": 0.00000274,
    "UNIT_GROUP": "Units of volume*time",
    "PROPERTY": "Volume*time",
    "REF": false
  },
  {
    "NAME": "cm3*a",
    "SYNONYMS": "cm3y",
    "DESCRIPTION": "Cubic centimetres * year",
    "CONVERSION_FACTOR": 0.000001,
    "UNIT_GROUP": "Units of volume*time",
    "PROPERTY": "Volume*time",
    "REF": false
  },
  {
    "NAME": "m3*a",
    "SYNONYMS": "m³*a;m3a;m3y",
    "DESCRIPTION": "Cubic metre times year",
    "CONVERSION_FACTOR": 1,
    "UNIT_GROUP": "Units of volume*time",
    "PROPERTY": "Volume*time",
    "REF": true
  },
  {
    "NAME": "m3*d",
    "SYNONYMS": "m³*d;m3d;m3day",
    "DESCRIPTION": "Cubic metre times day",
    "CONVERSION_FACTOR": 0.00274,
    "UNIT_GROUP": "Units of volume*time",
    "PROPERTY": "Volume*time",
    "REF": false
  },
  {
    "NAME": "mm*m2",
    "SYNONYMS": null,
    "DESCRIPTION": "Millimetre times square metre",
    "CONVERSION_FACTOR": 1,
    "UNIT_GROUP": "Units of length*area",
    "PROPERTY": "Groundwater Replenishment (Occ.)",
    "REF": true
  },
  {
    "NAME": "t*a",
    "SYNONYMS": null,
    "DESCRIPTION": "Metric tonnes times year",
    "CONVERSION_FACTOR": 1000,
    "UNIT_GROUP": "Units of mass*time",
    "PROPERTY": "Mass*time",
    "REF": false
  },
  {
    "NAME": "g*a",
    "SYNONYMS": null,
    "DESCRIPTION": "Gram times year",
    "CONVERSION_FACTOR": 0.001,
    "UNIT_GROUP": "Units of mass*time",
    "PROPERTY": "Mass*time",
    "REF": false
  },
  {
    "NAME": "t*d",
    "SYNONYMS": null,
    "DESCRIPTION": "Metric tonne times day (1 year = 365 days)",
    "CONVERSION_FACTOR": 2.73,
    "UNIT_GROUP": "Units of mass*time",
    "PROPERTY": "Mass*time",
    "REF": false
  },
  {
    "NAME": "kg*d",
    "SYNONYMS": null,
    "DESCRIPTION": "Kilogram times day (1 year = 365 days)",
    "CONVERSION_FACTOR": 0.00274,
    "UNIT_GROUP": "Units of mass*time",
    "PROPERTY": "Mass*time",
    "REF": false
  },
  {
    "NAME": "kg*a",
    "SYNONYMS": "kgy",
    "DESCRIPTION": "Kilogram times year",
    "CONVERSION_FACTOR": 1,
    "UNIT_GROUP": "Units of mass*time",
    "PROPERTY": "Mass*time",
    "REF": true
  },
  {
    "NAME": "(mm*m2)/a",
    "SYNONYMS": null,
    "DESCRIPTION": "Millimetre times square metre per year",
    "CONVERSION_FACTOR": 1,
    "UNIT_GROUP": "Units of groundwater replenishment (transf.)",
    "PROPERTY": "Groundwater Replenishment (Transf.)",
    "REF": true
  },
  {
    "NAME": "l*nmi",
    "SYNONYMS": null,
    "DESCRIPTION": "Litre times nautical mile",
    "CONVERSION_FACTOR": 0.00185,
    "UNIT_GROUP": "Units of volume*length",
    "PROPERTY": "Volume*Length",
    "REF": false
  },
  {
    "NAME": "l*mi",
    "SYNONYMS": null,
    "DESCRIPTION": "Litre times international mile",
    "CONVERSION_FACTOR": 0.00161,
    "UNIT_GROUP": "Units of volume*length",
    "PROPERTY": "Volume*Length",
    "REF": false
  },
  {
    "NAME": "m3*km",
    "SYNONYMS": null,
    "DESCRIPTION": "Cubic metre times kilometre",
    "CONVERSION_FACTOR": 1,
    "UNIT_GROUP": "Units of volume*length",
    "PROPERTY": "Volume*Length",
    "REF": true
  },
  {
    "NAME": "l*km",
    "SYNONYMS": null,
    "DESCRIPTION": "Litre times kilometre",
    "CONVERSION_FACTOR": 0.001,
    "UNIT_GROUP": "Units of volume*length",
    "PROPERTY": "Volume*Length",
    "REF": false
  },
  {
    "NAME": "m3*mi",
    "SYNONYMS": null,
    "DESCRIPTION": "Cubic metre times international mile",
    "CONVERSION_FACTOR": 1.6,
    "UNIT_GROUP": "Units of volume*length",
    "PROPERTY": "Volume*Length",
    "REF": false
  },
  {
    "NAME": "m3*nmi",
    "SYNONYMS": null,
    "DESCRIPTION": "Cubic metre times nautical mile",
    "CONVERSION_FACTOR": 1.85,
    "UNIT_GROUP": "Units of volume*length",
    "PROPERTY": "Volume*Length",
    "REF": false
  },
  {
    "NAME": "kt*km",
    "SYNONYMS": "ktkm",
    "DESCRIPTION": "Kilotonne * kilometre",
    "CONVERSION_FACTOR": 1000,
    "UNIT_GROUP": "Units of mass*length",
    "PROPERTY": "Goods transport (mass*distance)",
    "REF": false
  },
  {
    "NAME": "t*km",
    "SYNONYMS": "tkm",
    "DESCRIPTION": "Metric tonne-kilometre",
    "CONVERSION_FACTOR": 1,
    "UNIT_GROUP": "Units of mass*length",
    "PROPERTY": "Goods transport (mass*distance)",
    "REF": true
  },
  {
    "NAME": "t*mi",
    "SYNONYMS": null,
    "DESCRIPTION": "Metric tonne times international mile",
    "CONVERSION_FACTOR": 1.609344,
    "UNIT_GROUP": "Units of mass*length",
    "PROPERTY": "Goods transport (mass*distance)",
    "REF": false
  },
  {
    "NAME": "lb*mi",
    "SYNONYMS": null,
    "DESCRIPTION": "British pound (avoirdupois) times international mile",
    "CONVERSION_FACTOR": 0.00073,
    "UNIT_GROUP": "Units of mass*length",
    "PROPERTY": "Goods transport (mass*distance)",
    "REF": false
  },
  {
    "NAME": "t*nmi",
    "SYNONYMS": null,
    "DESCRIPTION": "Metric tonne times nautical mile",
    "CONVERSION_FACTOR": 1.85,
    "UNIT_GROUP": "Units of mass*length",
    "PROPERTY": "Goods transport (mass*distance)",
    "REF": false
  },
  {
    "NAME": "kg*km",
    "SYNONYMS": "kgkm;kgkm",
    "DESCRIPTION": "Kilogram-kilometre",
    "CONVERSION_FACTOR": 0.001,
    "UNIT_GROUP": "Units of mass*length",
    "PROPERTY": "Goods transport (mass*distance)",
    "REF": false
  },
  {
    "NAME": "lb*nmi",
    "SYNONYMS": null,
    "DESCRIPTION": "British pound (avoirdupois) times nautical mile",
    "CONVERSION_FACTOR": 0.00084,
    "UNIT_GROUP": "Units of mass*length",
    "PROPERTY": "Goods transport (mass*distance)",
    "REF": false
  },
  {
    "NAME": "in",
    "SYNONYMS": "inch",
    "DESCRIPTION": "Inch",
    "CONVERSION_FACTOR": 0.02,
    "UNIT_GROUP": "Units of length",
    "PROPERTY": "Length",
    "REF": false
  },
  {
    "NAME": "hm",
    "SYNONYMS": null,
    "DESCRIPTION": "Hectometre",
    "CONVERSION_FACTOR": 100,
    "UNIT_GROUP": "Units of length",
    "PROPERTY": "Length",
    "REF": false
  },
  {
    "NAME": "fur",
    "SYNONYMS": null,
    "DESCRIPTION": "Furlong",
    "CONVERSION_FACTOR": 201.168,
    "UNIT_GROUP": "Units of length",
    "PROPERTY": "Length",
    "REF": false
  },
  {
    "NAME": "ch",
    "SYNONYMS": null,
    "DESCRIPTION": "Chain",
    "CONVERSION_FACTOR": 20.1168,
    "UNIT_GROUP": "Units of length",
    "PROPERTY": "Length",
    "REF": false
  },
  {
    "NAME": "nmi",
    "SYNONYMS": null,
    "DESCRIPTION": "Nautical mile",
    "CONVERSION_FACTOR": 1852,
    "UNIT_GROUP": "Units of length",
    "PROPERTY": "Length",
    "REF": false
  },
  {
    "NAME": "hh",
    "SYNONYMS": null,
    "DESCRIPTION": "Hand",
    "CONVERSION_FACTOR": 0.1016,
    "UNIT_GROUP": "Units of length",
    "PROPERTY": "Length",
    "REF": false
  },
  {
    "NAME": "ftm",
    "SYNONYMS": null,
    "DESCRIPTION": "Fathom",
    "CONVERSION_FACTOR": 1.8288,
    "UNIT_GROUP": "Units of length",
    "PROPERTY": "Length",
    "REF": false
  },
  {
    "NAME": "dm",
    "SYNONYMS": null,
    "DESCRIPTION": "Decimetre",
    "CONVERSION_FACTOR": 0.1,
    "UNIT_GROUP": "Units of length",
    "PROPERTY": "Length",
    "REF": false
  },
  {
    "NAME": "m",
    "SYNONYMS": null,
    "DESCRIPTION": "Metre",
    "CONVERSION_FACTOR": 1,
    "UNIT_GROUP": "Units of length",
    "PROPERTY": "Length",
    "REF": true
  },
  {
    "NAME": "mi",
    "SYNONYMS": "mile",
    "DESCRIPTION": "International mile",
    "CONVERSION_FACTOR": 1609.34,
    "UNIT_GROUP": "Units of length",
    "PROPERTY": "Length",
    "REF": false
  },
  {
    "NAME": "km",
    "SYNONYMS": null,
    "DESCRIPTION": "Kilometre",
    "CONVERSION_FACTOR": 1000,
    "UNIT_GROUP": "Units of length",
    "PROPERTY": "Length",
    "REF": false
  },
  {
    "NAME": "u",
    "SYNONYMS": "µm;um",
    "DESCRIPTION": "Micron",
    "CONVERSION_FACTOR": 0.000001,
    "UNIT_GROUP": "Units of length",
    "PROPERTY": "Length",
    "REF": false
  },
  {
    "NAME": "dam",
    "SYNONYMS": null,
    "DESCRIPTION": "Decametre",
    "CONVERSION_FACTOR": 10,
    "UNIT_GROUP": "Units of length",
    "PROPERTY": "Length",
    "REF": false
  },
  {
    "NAME": "yd",
    "SYNONYMS": "yard",
    "DESCRIPTION": "Yard (international)",
    "CONVERSION_FACTOR": 0.91,
    "UNIT_GROUP": "Units of length",
    "PROPERTY": "Length",
    "REF": false
  },
  {
    "NAME": "mm",
    "SYNONYMS": null,
    "DESCRIPTION": "Millimetre",
    "CONVERSION_FACTOR": 0.001,
    "UNIT_GROUP": "Units of length",
    "PROPERTY": "Length",
    "REF": false
  },
  {
    "NAME": "cm",
    "SYNONYMS": null,
    "DESCRIPTION": "Centimetre",
    "CONVERSION_FACTOR": 0.01,
    "UNIT_GROUP": "Units of length",
    "PROPERTY": "Length",
    "REF": false
  },
  {
    "NAME": "ft",
    "SYNONYMS": null,
    "DESCRIPTION": "Foot (international)",
    "CONVERSION_FACTOR": 0.3,
    "UNIT_GROUP": "Units of length",
    "PROPERTY": "Length",
    "REF": false
  },
  {
    "NAME": "p*mi",
    "SYNONYMS": "pmi",
    "DESCRIPTION": "Person * mile",
    "CONVERSION_FACTOR": 1.6,
    "UNIT_GROUP": "Units of person transport",
    "PROPERTY": "Person transport",
    "REF": false
  },
  {
    "NAME": "p*km",
    "SYNONYMS": "pkm;personkm",
    "DESCRIPTION": "Person kilometre",
    "CONVERSION_FACTOR": 1,
    "UNIT_GROUP": "Units of person transport",
    "PROPERTY": "Person transport",
    "REF": true
  },
  {
    "NAME": "(cmol*m2*a)/kg",
    "SYNONYMS": null,
    "DESCRIPTION": "Centimole times square metre times year per kilogram",
    "CONVERSION_FACTOR": 1,
    "UNIT_GROUP": "Units of mole*area*time/mass",
    "PROPERTY": "Physicochemical Filtration (Occ.)",
    "REF": true
  },
  {
    "NAME": "lb av",
    "SYNONYMS": "lb",
    "DESCRIPTION": "British pound (avoirdupois)",
    "CONVERSION_FACTOR": 0.45,
    "UNIT_GROUP": "Units of mass",
    "PROPERTY": "Mass",
    "REF": false
  },
  {
    "NAME": "kg",
    "SYNONYMS": null,
    "DESCRIPTION": "Kilogram",
    "CONVERSION_FACTOR": 1,
    "UNIT_GROUP": "Units of mass",
    "PROPERTY": "Mass",
    "REF": true
  },
  {
    "NAME": "cg",
    "SYNONYMS": null,
    "DESCRIPTION": "Centigram",
    "CONVERSION_FACTOR": 0.00001,
    "UNIT_GROUP": "Units of mass",
    "PROPERTY": "Mass",
    "REF": false
  },
  {
    "NAME": "oz t",
    "SYNONYMS": null,
    "DESCRIPTION": "Ounce (troy)",
    "CONVERSION_FACTOR": 0.03,
    "UNIT_GROUP": "Units of mass",
    "PROPERTY": "Mass",
    "REF": false
  },
  {
    "NAME": "cwt",
    "SYNONYMS": null,
    "DESCRIPTION": "Short hundredweight",
    "CONVERSION_FACTOR": 45.359237,
    "UNIT_GROUP": "Units of mass",
    "PROPERTY": "Mass",
    "REF": false
  },
  {
    "NAME": "dg",
    "SYNONYMS": null,
    "DESCRIPTION": "Decigram",
    "CONVERSION_FACTOR": 0.0001,
    "UNIT_GROUP": "Units of mass",
    "PROPERTY": "Mass",
    "REF": false
  },
  {
    "NAME": "dr (Av)",
    "SYNONYMS": null,
    "DESCRIPTION": "Dram (Avoirdupois)",
    "CONVERSION_FACTOR": 0.001771845,
    "UNIT_GROUP": "Units of mass",
    "PROPERTY": "Mass",
    "REF": false
  },
  {
    "NAME": "ng",
    "SYNONYMS": null,
    "DESCRIPTION": "Nanogram",
    "CONVERSION_FACTOR": 0.000000000001,
    "UNIT_GROUP": "Units of mass",
    "PROPERTY": "Mass",
    "REF": false
  },
  {
    "NAME": "pg",
    "SYNONYMS": null,
    "DESCRIPTION": "Picogram; 10^-12 g",
    "CONVERSION_FACTOR": 0.000000000000001,
    "UNIT_GROUP": "Units of mass",
    "PROPERTY": "Mass",
    "REF": false
  },
  {
    "NAME": "gr",
    "SYNONYMS": null,
    "DESCRIPTION": "Grain",
    "CONVERSION_FACTOR": 0.0000648,
    "UNIT_GROUP": "Units of mass",
    "PROPERTY": "Mass",
    "REF": false
  },
  {
    "NAME": "t",
    "SYNONYMS": "Mg;ton",
    "DESCRIPTION": "Tonne",
    "CONVERSION_FACTOR": 1000,
    "UNIT_GROUP": "Units of mass",
    "PROPERTY": "Mass",
    "REF": false
  },
  {
    "NAME": "hg",
    "SYNONYMS": null,
    "DESCRIPTION": "Hectogram",
    "CONVERSION_FACTOR": 0.1,
    "UNIT_GROUP": "Units of mass",
    "PROPERTY": "Mass",
    "REF": false
  },
  {
    "NAME": "dag",
    "SYNONYMS": null,
    "DESCRIPTION": "Decagram",
    "CONVERSION_FACTOR": 0.01,
    "UNIT_GROUP": "Units of mass",
    "PROPERTY": "Mass",
    "REF": false
  },
  {
    "NAME": "kg SWU",
    "SYNONYMS": null,
    "DESCRIPTION": "Kilogram SWU",
    "CONVERSION_FACTOR": 1,
    "UNIT_GROUP": "Units of mass",
    "PROPERTY": "Mass",
    "REF": false
  },
  {
    "NAME": "Mt",
    "SYNONYMS": "Mtn",
    "DESCRIPTION": "Megatonne",
    "CONVERSION_FACTOR": 1000000000,
    "UNIT_GROUP": "Units of mass",
    "PROPERTY": "Mass",
    "REF": false
  },
  {
    "NAME": "dwt",
    "SYNONYMS": null,
    "DESCRIPTION": "Pennyweight",
    "CONVERSION_FACTOR": 0.001555174,
    "UNIT_GROUP": "Units of mass",
    "PROPERTY": "Mass",
    "REF": false
  },
  {
    "NAME": "ct",
    "SYNONYMS": "carat",
    "DESCRIPTION": "Carat (metric)",
    "CONVERSION_FACTOR": 0.0002,
    "UNIT_GROUP": "Units of mass",
    "PROPERTY": "Mass",
    "REF": false
  },
  {
    "NAME": "mg",
    "SYNONYMS": null,
    "DESCRIPTION": "Milligram",
    "CONVERSION_FACTOR": 0.000001,
    "UNIT_GROUP": "Units of mass",
    "PROPERTY": "Mass",
    "REF": false
  },
  {
    "NAME": "ug",
    "SYNONYMS": "µg",
    "DESCRIPTION": "Microgram",
    "CONVERSION_FACTOR": 0.000000001,
    "UNIT_GROUP": "Units of mass",
    "PROPERTY": "Mass",
    "REF": false
  },
  {
    "NAME": "Mg",
    "SYNONYMS": null,
    "DESCRIPTION": "Megagram = 1 metric tonne",
    "CONVERSION_FACTOR": 1000,
    "UNIT_GROUP": "Units of mass",
    "PROPERTY": "Mass",
    "REF": false
  },
  {
    "NAME": "sh tn",
    "SYNONYMS": "tn.sh",
    "DESCRIPTION": "Short ton",
    "CONVERSION_FACTOR": 907.18,
    "UNIT_GROUP": "Units of mass",
    "PROPERTY": "Mass",
    "REF": false
  },
  {
    "NAME": "g",
    "SYNONYMS": null,
    "DESCRIPTION": "Gram",
    "CONVERSION_FACTOR": 0.001,
    "UNIT_GROUP": "Units of mass",
    "PROPERTY": "Mass",
    "REF": false
  },
  {
    "NAME": "long tn",
    "SYNONYMS": "tn.lg",
    "DESCRIPTION": "Long ton",
    "CONVERSION_FACTOR": 1016.04,
    "UNIT_GROUP": "Units of mass",
    "PROPERTY": "Mass",
    "REF": false
  },
  {
    "NAME": "kt",
    "SYNONYMS": null,
    "DESCRIPTION": "Kilotonne",
    "CONVERSION_FACTOR": 1000000,
    "UNIT_GROUP": "Units of mass",
    "PROPERTY": "Mass",
    "REF": false
  },
  {
    "NAME": "oz av",
    "SYNONYMS": "oz",
    "DESCRIPTION": "Ounce (avoirdupois); commonly used, but NOT for gold, platinum etc. (see Ounce (troy))",
    "CONVERSION_FACTOR": 0.02,
    "UNIT_GROUP": "Units of mass",
    "PROPERTY": "Mass",
    "REF": false
  },
  {
    "NAME": "Rutherford",
    "SYNONYMS": null,
    "DESCRIPTION": "Rutherford",
    "CONVERSION_FACTOR": 1000,
    "UNIT_GROUP": "Units of radioactivity",
    "PROPERTY": "Radioactivity",
    "REF": false
  },
  {
    "NAME": "µBq",
    "SYNONYMS": null,
    "DESCRIPTION": "microBequerel",
    "CONVERSION_FACTOR": 0.000000001,
    "UNIT_GROUP": "Units of radioactivity",
    "PROPERTY": "Radioactivity",
    "REF": false
  },
  {
    "NAME": "Bq",
    "SYNONYMS": null,
    "DESCRIPTION": "Bequerel, 1 event per second",
    "CONVERSION_FACTOR": 0.001,
    "UNIT_GROUP": "Units of radioactivity",
    "PROPERTY": "Radioactivity",
    "REF": false
  },
  {
    "NAME": "nBq",
    "SYNONYMS": null,
    "DESCRIPTION": "nanoBequerel",
    "CONVERSION_FACTOR": 0.000000000001,
    "UNIT_GROUP": "Units of radioactivity",
    "PROPERTY": "Radioactivity",
    "REF": false
  },
  {
    "NAME": "mBq",
    "SYNONYMS": null,
    "DESCRIPTION": "miliBequerel",
    "CONVERSION_FACTOR": 0.000001,
    "UNIT_GROUP": "Units of radioactivity",
    "PROPERTY": "Radioactivity",
    "REF": false
  },
  {
    "NAME": "kBq",
    "SYNONYMS": null,
    "DESCRIPTION": "Kilo-Bequerel, 1000 events per second",
    "CONVERSION_FACTOR": 1,
    "UNIT_GROUP": "Units of radioactivity",
    "PROPERTY": "Radioactivity",
    "REF": true
  },
  {
    "NAME": "Ci",
    "SYNONYMS": null,
    "DESCRIPTION": "Curie",
    "CONVERSION_FACTOR": 37000000,
    "UNIT_GROUP": "Units of radioactivity",
    "PROPERTY": "Radioactivity",
    "REF": false
  },
  {
    "NAME": "mm2",
    "SYNONYMS": null,
    "DESCRIPTION": "Square millimetres",
    "CONVERSION_FACTOR": 0.000001,
    "UNIT_GROUP": "Units of area",
    "PROPERTY": "Area",
    "REF": false
  },
  {
    "NAME": "mi2",
    "SYNONYMS": "mi²;sq.mi",
    "DESCRIPTION": "British square mile",
    "CONVERSION_FACTOR": 2589988.11,
    "UNIT_GROUP": "Units of area",
    "PROPERTY": "Area",
    "REF": false
  },
  {
    "NAME": "m2",
    "SYNONYMS": "m²",
    "DESCRIPTION": "Square metre",
    "CONVERSION_FACTOR": 1,
    "UNIT_GROUP": "Units of area",
    "PROPERTY": "Area",
    "REF": true
  },
  {
    "NAME": "nmi2",
    "SYNONYMS": null,
    "DESCRIPTION": "Square nautical mile",
    "CONVERSION_FACTOR": 3429904,
    "UNIT_GROUP": "Units of area",
    "PROPERTY": "Area",
    "REF": false
  },
  {
    "NAME": "cm2",
    "SYNONYMS": null,
    "DESCRIPTION": "Square centimetre",
    "CONVERSION_FACTOR": 0.0001,
    "UNIT_GROUP": "Units of area",
    "PROPERTY": "Area",
    "REF": false
  },
  {
    "NAME": "yd2",
    "SYNONYMS": "sq.yd",
    "DESCRIPTION": "Square yard (imperial/US)",
    "CONVERSION_FACTOR": 0.83,
    "UNIT_GROUP": "Units of area",
    "PROPERTY": "Area",
    "REF": false
  },
  {
    "NAME": "ac",
    "SYNONYMS": "acre (US);acre",
    "DESCRIPTION": "Acre (US survey)",
    "CONVERSION_FACTOR": 4046.85,
    "UNIT_GROUP": "Units of area",
    "PROPERTY": "Area",
    "REF": false
  },
  {
    "NAME": "km2",
    "SYNONYMS": "km²",
    "DESCRIPTION": "Square kilometre",
    "CONVERSION_FACTOR": 1000000,
    "UNIT_GROUP": "Units of area",
    "PROPERTY": "Area",
    "REF": false
  },
  {
    "NAME": "ft2",
    "SYNONYMS": "ft²;sq.ft",
    "DESCRIPTION": "British square feet",
    "CONVERSION_FACTOR": 0.09,
    "UNIT_GROUP": "Units of area",
    "PROPERTY": "Area",
    "REF": false
  },
  {
    "NAME": "in2",
    "SYNONYMS": "sq.in",
    "DESCRIPTION": "Square inches",
    "CONVERSION_FACTOR": 0.000645,
    "UNIT_GROUP": "Units of area",
    "PROPERTY": "Area",
    "REF": false
  },
  {
    "NAME": "dm2",
    "SYNONYMS": null,
    "DESCRIPTION": "Square decimetres",
    "CONVERSION_FACTOR": 0.01,
    "UNIT_GROUP": "Units of area",
    "PROPERTY": "Area",
    "REF": false
  },
  {
    "NAME": "ha",
    "SYNONYMS": null,
    "DESCRIPTION": "Hectare",
    "CONVERSION_FACTOR": 10000,
    "UNIT_GROUP": "Units of area",
    "PROPERTY": "Area",
    "REF": false
  },
  {
    "NAME": "are",
    "SYNONYMS": null,
    "DESCRIPTION": "Are",
    "CONVERSION_FACTOR": 100,
    "UNIT_GROUP": "Units of area",
    "PROPERTY": "Area",
    "REF": false
  },
  {
    "NAME": "m2*d",
    "SYNONYMS": null,
    "DESCRIPTION": "Square metre times day",
    "CONVERSION_FACTOR": 0.00274,
    "UNIT_GROUP": "Units of area*time",
    "PROPERTY": "Area*time",
    "REF": false
  },
  {
    "NAME": "cm2a",
    "SYNONYMS": null,
    "DESCRIPTION": "Square centimetres * year",
    "CONVERSION_FACTOR": 0.0001,
    "UNIT_GROUP": "Units of area*time",
    "PROPERTY": "Area*time",
    "REF": false
  },
  {
    "NAME": "mi2*a",
    "SYNONYMS": "mi²*a;mi2a;mi²a",
    "DESCRIPTION": "British square mile times year",
    "CONVERSION_FACTOR": 2589988.1,
    "UNIT_GROUP": "Units of area*time",
    "PROPERTY": "Area*time",
    "REF": false
  },
  {
    "NAME": "ha*a",
    "SYNONYMS": "ha a",
    "DESCRIPTION": "Hectare times year",
    "CONVERSION_FACTOR": 10000,
    "UNIT_GROUP": "Units of area*time",
    "PROPERTY": "Area*time",
    "REF": false
  },
  {
    "NAME": "mm2a",
    "SYNONYMS": null,
    "DESCRIPTION": "Square millimetres * year",
    "CONVERSION_FACTOR": 0.000001,
    "UNIT_GROUP": "Units of area*time",
    "PROPERTY": "Area*time",
    "REF": false
  },
  {
    "NAME": "m2*a",
    "SYNONYMS": "m²*a;m2a;m²a;m2a;m2*year",
    "DESCRIPTION": "Square metre times year",
    "CONVERSION_FACTOR": 1,
    "UNIT_GROUP": "Units of area*time",
    "PROPERTY": "Area*time",
    "REF": true
  },
  {
    "NAME": "km2*a",
    "SYNONYMS": "km²*a;km2a;km²a;km2a",
    "DESCRIPTION": "Square kilometre times year",
    "CONVERSION_FACTOR": 1000000,
    "UNIT_GROUP": "Units of area*time",
    "PROPERTY": "Area*time",
    "REF": false
  },
  {
    "NAME": "ft2*a",
    "SYNONYMS": "ft²*a;ft²a;ft2a",
    "DESCRIPTION": "British square feet times year",
    "CONVERSION_FACTOR": 0.09,
    "UNIT_GROUP": "Units of area*time",
    "PROPERTY": "Area*time",
    "REF": false
  },
  {
    "NAME": "gill",
    "SYNONYMS": null,
    "DESCRIPTION": "Gill",
    "CONVERSION_FACTOR": 0.000118294,
    "UNIT_GROUP": "Units of volume",
    "PROPERTY": "Volume",
    "REF": false
  },
  {
    "NAME": "cu ft",
    "SYNONYMS": "cuft",
    "DESCRIPTION": "Cubic feet",
    "CONVERSION_FACTOR": 0.02,
    "UNIT_GROUP": "Units of volume",
    "PROPERTY": "Volume",
    "REF": false
  },
  {
    "NAME": "qt (US dry)",
    "SYNONYMS": null,
    "DESCRIPTION": "Quart (US dry)",
    "CONVERSION_FACTOR": 0.001101221,
    "UNIT_GROUP": "Units of volume",
    "PROPERTY": "Volume",
    "REF": false
  },
  {
    "NAME": "m3",
    "SYNONYMS": "m³; kl;kL",
    "DESCRIPTION": "Cubic metre",
    "CONVERSION_FACTOR": 1,
    "UNIT_GROUP": "Units of volume",
    "PROPERTY": "Volume",
    "REF": true
  },
  {
    "NAME": "bl (US dry)",
    "SYNONYMS": null,
    "DESCRIPTION": "Barrel (US dry)",
    "CONVERSION_FACTOR": 0.11,
    "UNIT_GROUP": "Units of volume",
    "PROPERTY": "Volume",
    "REF": false
  },
  {
    "NAME": "US fl oz",
    "SYNONYMS": null,
    "DESCRIPTION": "US customary fluid ounce",
    "CONVERSION_FACTOR": 0.0000296,
    "UNIT_GROUP": "Units of volume",
    "PROPERTY": "Volume",
    "REF": false
  },
  {
    "NAME": "dal",
    "SYNONYMS": "daL",
    "DESCRIPTION": "Decalitre",
    "CONVERSION_FACTOR": 0.01,
    "UNIT_GROUP": "Units of volume",
    "PROPERTY": "Volume",
    "REF": false
  },
  {
    "NAME": "pt (US fl)",
    "SYNONYMS": null,
    "DESCRIPTION": "Pint (US fluid)",
    "CONVERSION_FACTOR": 0.000473,
    "UNIT_GROUP": "Units of volume",
    "PROPERTY": "Volume",
    "REF": false
  },
  {
    "NAME": "dm3",
    "SYNONYMS": null,
    "DESCRIPTION": "Cubic decimeter",
    "CONVERSION_FACTOR": 0.001,
    "UNIT_GROUP": "Units of volume",
    "PROPERTY": "Volume",
    "REF": false
  },
  {
    "NAME": "gal (US fl)",
    "SYNONYMS": null,
    "DESCRIPTION": "Gallon (US fluid); used in US e.g. for fuel",
    "CONVERSION_FACTOR": 0.00379,
    "UNIT_GROUP": "Units of volume",
    "PROPERTY": "Volume",
    "REF": false
  },
  {
    "NAME": "Nm3",
    "SYNONYMS": "Nm³",
    "DESCRIPTION": "Normal cubic metres",
    "CONVERSION_FACTOR": 1,
    "UNIT_GROUP": "Units of volume",
    "PROPERTY": "Volume",
    "REF": false
  },
  {
    "NAME": "cm3",
    "SYNONYMS": null,
    "DESCRIPTION": "Cubic centimetres",
    "CONVERSION_FACTOR": 0.000001,
    "UNIT_GROUP": "Units of volume",
    "PROPERTY": "Volume",
    "REF": false
  },
  {
    "NAME": "mm3",
    "SYNONYMS": null,
    "DESCRIPTION": "Cubic millimetres",
    "CONVERSION_FACTOR": 0.000000001,
    "UNIT_GROUP": "Units of volume",
    "PROPERTY": "Volume",
    "REF": false
  },
  {
    "NAME": "bsh (US)",
    "SYNONYMS": null,
    "DESCRIPTION": "US bushel",
    "CONVERSION_FACTOR": 0.03,
    "UNIT_GROUP": "Units of volume",
    "PROPERTY": "Volume",
    "REF": false
  },
  {
    "NAME": "dl",
    "SYNONYMS": "dL",
    "DESCRIPTION": "Decilitre",
    "CONVERSION_FACTOR": 0.0001,
    "UNIT_GROUP": "Units of volume",
    "PROPERTY": "Volume",
    "REF": false
  },
  {
    "NAME": "gal (US liq)",
    "SYNONYMS": "gal*",
    "DESCRIPTION": "Gallon (US liquid)",
    "CONVERSION_FACTOR": 0.00379,
    "UNIT_GROUP": "Units of volume",
    "PROPERTY": "Volume",
    "REF": false
  },
  {
    "NAME": "in3",
    "SYNONYMS": "cu.in",
    "DESCRIPTION": "Cubic inches",
    "CONVERSION_FACTOR": 0.0000164,
    "UNIT_GROUP": "Units of volume",
    "PROPERTY": "Volume",
    "REF": false
  },
  {
    "NAME": "dr (Fl)",
    "SYNONYMS": null,
    "DESCRIPTION": "Dram (Fluid)",
    "CONVERSION_FACTOR": 0.0000037,
    "UNIT_GROUP": "Units of volume",
    "PROPERTY": "Volume",
    "REF": false
  },
  {
    "NAME": "pk",
    "SYNONYMS": null,
    "DESCRIPTION": "Peck",
    "CONVERSION_FACTOR": 0.008809768,
    "UNIT_GROUP": "Units of volume",
    "PROPERTY": "Volume",
    "REF": false
  },
  {
    "NAME": "fl oz (Imp)",
    "SYNONYMS": null,
    "DESCRIPTION": "Fluid ounce (Imperial)",
    "CONVERSION_FACTOR": 0.0000284,
    "UNIT_GROUP": "Units of volume",
    "PROPERTY": "Volume",
    "REF": false
  },
  {
    "NAME": "ml",
    "SYNONYMS": "mL",
    "DESCRIPTION": "Millilitre",
    "CONVERSION_FACTOR": 0.000001,
    "UNIT_GROUP": "Units of volume",
    "PROPERTY": "Volume",
    "REF": false
  },
  {
    "NAME": "bl (US fl)",
    "SYNONYMS": null,
    "DESCRIPTION": "Barrel (US non-beer fluid)",
    "CONVERSION_FACTOR": 0.11,
    "UNIT_GROUP": "Units of volume",
    "PROPERTY": "Volume",
    "REF": false
  },
  {
    "NAME": "gal (Imp)",
    "SYNONYMS": null,
    "DESCRIPTION": "Gallon (Imperial); used in UK, United Arab Emirates for fuels",
    "CONVERSION_FACTOR": 0.00455,
    "UNIT_GROUP": "Units of volume",
    "PROPERTY": "Volume",
    "REF": false
  },
  {
    "NAME": "bsh (Imp)",
    "SYNONYMS": null,
    "DESCRIPTION": "Imperial bushel",
    "CONVERSION_FACTOR": 0.03,
    "UNIT_GROUP": "Units of volume",
    "PROPERTY": "Volume",
    "REF": false
  },
  {
    "NAME": "bbl",
    "SYNONYMS": null,
    "DESCRIPTION": "Barrel (petroleum)",
    "CONVERSION_FACTOR": 0.15,
    "UNIT_GROUP": "Units of volume",
    "PROPERTY": "Volume",
    "REF": false
  },
  {
    "NAME": "bl (Imp)",
    "SYNONYMS": null,
    "DESCRIPTION": "Barrel (Imperial)",
    "CONVERSION_FACTOR": 0.16,
    "UNIT_GROUP": "Units of volume",
    "PROPERTY": "Volume",
    "REF": false
  },
  {
    "NAME": "yd3",
    "SYNONYMS": "cu.yd",
    "DESCRIPTION": "Cubic yards",
    "CONVERSION_FACTOR": 0.76,
    "UNIT_GROUP": "Units of volume",
    "PROPERTY": "Volume",
    "REF": false
  },
  {
    "NAME": "pt (US dry)",
    "SYNONYMS": null,
    "DESCRIPTION": "Pint (US dry)",
    "CONVERSION_FACTOR": 0.000551,
    "UNIT_GROUP": "Units of volume",
    "PROPERTY": "Volume",
    "REF": false
  },
  {
    "NAME": "bl (US beer)",
    "SYNONYMS": null,
    "DESCRIPTION": "Barrel (US beer)",
    "CONVERSION_FACTOR": 0.11,
    "UNIT_GROUP": "Units of volume",
    "PROPERTY": "Volume",
    "REF": false
  },
  {
    "NAME": "cl",
    "SYNONYMS": "cL",
    "DESCRIPTION": "Centilitre",
    "CONVERSION_FACTOR": 0.00001,
    "UNIT_GROUP": "Units of volume",
    "PROPERTY": "Volume",
    "REF": false
  },
  {
    "NAME": "l",
    "SYNONYMS": null,
    "DESCRIPTION": "Litre",
    "CONVERSION_FACTOR": 0.001,
    "UNIT_GROUP": "Units of volume",
    "PROPERTY": "Volume",
    "REF": false
  },
  {
    "NAME": "pt (Imp)",
    "SYNONYMS": null,
    "DESCRIPTION": "Pint (Imperial)",
    "CONVERSION_FACTOR": 0.000568,
    "UNIT_GROUP": "Units of volume",
    "PROPERTY": "Volume",
    "REF": false
  },
  {
    "NAME": "gal (US dry)",
    "SYNONYMS": null,
    "DESCRIPTION": "Gallon (US dry)",
    "CONVERSION_FACTOR": 0.0044,
    "UNIT_GROUP": "Units of volume",
    "PROPERTY": "Volume",
    "REF": false
  },
  {
    "NAME": "Imp.min.",
    "SYNONYMS": null,
    "DESCRIPTION": "Minim",
    "CONVERSION_FACTOR": 0.0000000616,
    "UNIT_GROUP": "Units of volume",
    "PROPERTY": "Volume",
    "REF": false
  },
  {
    "NAME": "ul",
    "SYNONYMS": "µl;µL",
    "DESCRIPTION": "Microlitre",
    "CONVERSION_FACTOR": 0.000000001,
    "UNIT_GROUP": "Units of volume",
    "PROPERTY": "Volume",
    "REF": false
  },
  {
    "NAME": "hl",
    "SYNONYMS": "hL",
    "DESCRIPTION": "Hectolitre",
    "CONVERSION_FACTOR": 0.1,
    "UNIT_GROUP": "Units of volume",
    "PROPERTY": "Volume",
    "REF": false
  },
  {
    "NAME": "qt (US liq)",
    "SYNONYMS": null,
    "DESCRIPTION": "Quart (US liquid)",
    "CONVERSION_FACTOR": 0.000946353,
    "UNIT_GROUP": "Units of volume",
    "PROPERTY": "Volume",
    "REF": false
  },
  {
    "NAME": "(cmol*m2)/kg",
    "SYNONYMS": null,
    "DESCRIPTION": "Centimole times square metre per kilogram",
    "CONVERSION_FACTOR": 1,
    "UNIT_GROUP": "Units of mole*area/mass",
    "PROPERTY": "Physicochemical Filtration (Transf.)",
    "REF": true
  },
  {
    "NAME": "mi*a",
    "SYNONYMS": "miy",
    "DESCRIPTION": "Miles * year",
    "CONVERSION_FACTOR": 1609.35,
    "UNIT_GROUP": "Units of length*time",
    "PROPERTY": "Length*time",
    "REF": false
  },
  {
    "NAME": "km*a",
    "SYNONYMS": "kmy",
    "DESCRIPTION": "Kilometres * year",
    "CONVERSION_FACTOR": 1000,
    "UNIT_GROUP": "Units of length*time",
    "PROPERTY": "Length*time",
    "REF": false
  },
  {
    "NAME": "m*a",
    "SYNONYMS": "ma;my",
    "DESCRIPTION": "Metre times year",
    "CONVERSION_FACTOR": 1,
    "UNIT_GROUP": "Units of length*time",
    "PROPERTY": "Length*time",
    "REF": true
  },
  {
    "NAME": "d",
    "SYNONYMS": "day",
    "DESCRIPTION": "Day",
    "CONVERSION_FACTOR": 1,
    "UNIT_GROUP": "Units of time",
    "PROPERTY": "Duration",
    "REF": true
  },
  {
    "NAME": "h",
    "SYNONYMS": "hr",
    "DESCRIPTION": "Hour",
    "CONVERSION_FACTOR": 0.041666666666666664,
    "UNIT_GROUP": "Units of time",
    "PROPERTY": "Duration",
    "REF": false
  },
  {
    "NAME": "s",
    "SYNONYMS": null,
    "DESCRIPTION": "Second",
    "CONVERSION_FACTOR": 0.0000116,
    "UNIT_GROUP": "Units of time",
    "PROPERTY": "Duration",
    "REF": false
  },
  {
    "NAME": "a",
    "SYNONYMS": "year;yr",
    "DESCRIPTION": "Year (rounded)",
    "CONVERSION_FACTOR": 365,
    "UNIT_GROUP": "Units of time",
    "PROPERTY": "Duration",
    "REF": false
  },
  {
    "NAME": "min",
    "SYNONYMS": null,
    "DESCRIPTION": "Minute",
    "CONVERSION_FACTOR": 0.000694,
    "UNIT_GROUP": "Units of time",
    "PROPERTY": "Duration",
    "REF": false
  },
  {
    "NAME": "MJ/kg*d",
    "SYNONYMS": null,
    "DESCRIPTION": "Megajoule per kilogram times day",
    "CONVERSION_FACTOR": 1,
    "UNIT_GROUP": "Units of energy/mass*time",
    "PROPERTY": "Energy/mass*time",
    "REF": true
  },
  {
    "NAME": "cm*m3",
    "SYNONYMS": null,
    "DESCRIPTION": "Centimetre times cubic metre",
    "CONVERSION_FACTOR": 1,
    "UNIT_GROUP": "Units of mechanical filtration (occ.)",
    "PROPERTY": "Mechanical Filtration (Occ.)",
    "REF": true
  },
  {
    "NAME": "kWh/m2*d",
    "SYNONYMS": "kWh/m2*d;kWh/m2d;kWh/m²d",
    "DESCRIPTION": "Kilowatthour per square metre times day",
    "CONVERSION_FACTOR": 1,
    "UNIT_GROUP": "Units of energy/area*time",
    "PROPERTY": "Energy/area*time",
    "REF": true
  },
  {
    "NAME": "v*km",
    "SYNONYMS": "vkm",
    "DESCRIPTION": "Vehicle-kilometer",
    "CONVERSION_FACTOR": 1,
    "UNIT_GROUP": "Units of vehicle transport",
    "PROPERTY": "Vehicle transport",
    "REF": true
  },
  {
    "NAME": "kcal",
    "SYNONYMS": null,
    "DESCRIPTION": "Kilocalorie (International table)",
    "CONVERSION_FACTOR": 0.00419,
    "UNIT_GROUP": "Units of energy",
    "PROPERTY": "Energy",
    "REF": false
  },
  {
    "NAME": "GJ",
    "SYNONYMS": null,
    "DESCRIPTION": "Gigajoule",
    "CONVERSION_FACTOR": 1000,
    "UNIT_GROUP": "Units of energy",
    "PROPERTY": "Energy",
    "REF": false
  },
  {
    "NAME": "TOE",
    "SYNONYMS": null,
    "DESCRIPTION": "Tonne oil equivalent",
    "CONVERSION_FACTOR": 41868,
    "UNIT_GROUP": "Units of energy",
    "PROPERTY": "Energy",
    "REF": false
  },
  {
    "NAME": "J",
    "SYNONYMS": null,
    "DESCRIPTION": "Joule",
    "CONVERSION_FACTOR": 0.000001,
    "UNIT_GROUP": "Units of energy",
    "PROPERTY": "Energy",
    "REF": false
  },
  {
    "NAME": "MJ",
    "SYNONYMS": null,
    "DESCRIPTION": "Megajoule",
    "CONVERSION_FACTOR": 1,
    "UNIT_GROUP": "Units of energy",
    "PROPERTY": "Energy",
    "REF": true
  },
  {
    "NAME": "btu",
    "SYNONYMS": null,
    "DESCRIPTION": "British thermal unit (International table)",
    "CONVERSION_FACTOR": 0.00106,
    "UNIT_GROUP": "Units of energy",
    "PROPERTY": "Energy",
    "REF": false
  },
  {
    "NAME": "TJ",
    "SYNONYMS": null,
    "DESCRIPTION": "Terajoule",
    "CONVERSION_FACTOR": 1000000,
    "UNIT_GROUP": "Units of energy",
    "PROPERTY": "Energy",
    "REF": false
  },
  {
    "NAME": "TCE",
    "SYNONYMS": null,
    "DESCRIPTION": "Tonne coal equivalent",
    "CONVERSION_FACTOR": 29307.6,
    "UNIT_GROUP": "Units of energy",
    "PROPERTY": "Energy",
    "REF": false
  },
  {
    "NAME": "kWh",
    "SYNONYMS": null,
    "DESCRIPTION": "Kilowatt times hour",
    "CONVERSION_FACTOR": 3.6,
    "UNIT_GROUP": "Units of energy",
    "PROPERTY": "Energy",
    "REF": false
  },
  {
    "NAME": "MWh",
    "SYNONYMS": null,
    "DESCRIPTION": "Megawatt times hour",
    "CONVERSION_FACTOR": 3600,
    "UNIT_GROUP": "Units of energy",
    "PROPERTY": "Energy",
    "REF": false
  },
  {
    "NAME": "kJ",
    "SYNONYMS": null,
    "DESCRIPTION": "Kilojoule",
    "CONVERSION_FACTOR": 0.001,
    "UNIT_GROUP": "Units of energy",
    "PROPERTY": "Energy",
    "REF": false
  },
  {
    "NAME": "Wh",
    "SYNONYMS": null,
    "DESCRIPTION": "Watt times hour",
    "CONVERSION_FACTOR": 0.0036,
    "UNIT_GROUP": "Units of energy",
    "PROPERTY": "Energy",
    "REF": false
  },
  {
    "NAME": "PJ",
    "SYNONYMS": null,
    "DESCRIPTION": "PetaJoules",
    "CONVERSION_FACTOR": 1000000000,
    "UNIT_GROUP": "Units of energy",
    "PROPERTY": "Energy",
    "REF": false
  },
  {
    "NAME": "kg/a",
    "SYNONYMS": null,
    "DESCRIPTION": "Kilogram per year",
    "CONVERSION_FACTOR": 1,
    "UNIT_GROUP": "Units of mass/time",
    "PROPERTY": "Biotic Production (Transf.)",
    "REF": true
  }
]